/home/marwa/Documents/code/submit/src/main/java/submit/assignment/security/jwt/CustomAuthentication.java
/home/marwa/Documents/code/submit/src/main/java/submit/assignment/domain/Role.java
/home/marwa/Documents/code/submit/src/main/java/submit/assignment/service/dto/ResetPasswordDTO.java
/home/marwa/Documents/code/submit/src/main/java/submit/assignment/service/util/HttpUtil.java
/home/marwa/Documents/code/submit/src/main/java/submit/assignment/service/dto/AssignmentUploadDTO.java
/home/marwa/Documents/code/submit/src/main/java/submit/assignment/service/SubmissionService.java
/home/marwa/Documents/code/submit/src/main/java/submit/assignment/service/dto/InitialRegistrationDTO.java
/home/marwa/Documents/code/submit/src/main/java/submit/assignment/security/SecurityUtils.java
/home/marwa/Documents/code/submit/src/main/java/submit/assignment/service/dto/SubmissionDTO.java
/home/marwa/Documents/code/submit/src/main/java/submit/assignment/domain/User.java
/home/marwa/Documents/code/submit/src/main/java/submit/assignment/repository/SubmissionRepo.java
/home/marwa/Documents/code/submit/src/main/java/submit/assignment/service/dto/AssignmentDTO.java
/home/marwa/Documents/code/submit/src/main/java/submit/assignment/web/rest/CourseResource.java
/home/marwa/Documents/code/submit/src/main/java/submit/assignment/service/CourseService.java
/home/marwa/Documents/code/submit/src/main/java/submit/assignment/service/dto/AccountInfoDTO.java
/home/marwa/Documents/code/submit/src/main/java/submit/assignment/security/jwt/JWTFilter.java
/home/marwa/Documents/code/submit/src/main/java/submit/assignment/domain/Assignment.java
/home/marwa/Documents/code/submit/src/main/java/submit/assignment/security/CustomAuthority.java
/home/marwa/Documents/code/submit/src/main/java/submit/assignment/service/dto/EmailDTO.java
/home/marwa/Documents/code/submit/src/main/java/submit/assignment/service/AssignmentService.java
/home/marwa/Documents/code/submit/src/main/java/submit/assignment/service/dto/UserDTO.java
/home/marwa/Documents/code/submit/src/main/java/submit/assignment/service/mapper/SubmissionDetailMapper.java
/home/marwa/Documents/code/submit/src/main/java/submit/assignment/service/mapper/UserMapper.java
/home/marwa/Documents/code/submit/src/main/java/submit/assignment/security/CustomAuthenticationManager.java
/home/marwa/Documents/code/submit/src/main/java/submit/assignment/service/exceptions/EmailExistsException.java
/home/marwa/Documents/code/submit/src/main/java/submit/assignment/service/dto/CourseDTO.java
/home/marwa/Documents/code/submit/src/main/java/submit/assignment/service/exceptions/CourseNotFoundException.java
/home/marwa/Documents/code/submit/src/main/java/submit/assignment/repository/AssignmentRepo.java
/home/marwa/Documents/code/submit/src/main/java/submit/assignment/repository/CourseRepo.java
/home/marwa/Documents/code/submit/src/main/java/submit/assignment/domain/Submission.java
/home/marwa/Documents/code/submit/src/main/java/submit/assignment/service/dto/CourseIdsDTO.java
/home/marwa/Documents/code/submit/src/main/java/submit/assignment/security/jwt/JWTConfig.java
/home/marwa/Documents/code/submit/src/main/java/submit/assignment/domain/UploadStatus.java
/home/marwa/Documents/code/submit/src/main/java/submit/assignment/web/rest/SubmissionResource.java
/home/marwa/Documents/code/submit/src/main/java/submit/assignment/service/dto/ErrorDTO.java
/home/marwa/Documents/code/submit/src/main/java/submit/assignment/configurations/SecurityConfiguration.java
/home/marwa/Documents/code/submit/src/main/java/submit/assignment/service/dto/LoginDTO.java
/home/marwa/Documents/code/submit/src/main/java/submit/assignment/service/mapper/AssignmentMapper.java
/home/marwa/Documents/code/submit/src/main/java/submit/assignment/domain/AssignmentStatus.java
/home/marwa/Documents/code/submit/src/main/java/submit/assignment/security/jwt/TokenProvider.java
/home/marwa/Documents/code/submit/src/main/java/submit/assignment/configurations/ApplicationProperties.java
/home/marwa/Documents/code/submit/src/main/java/submit/assignment/service/util/StringUtil.java
/home/marwa/Documents/code/submit/src/main/java/submit/assignment/service/dto/EnrollCourseDTO.java
/home/marwa/Documents/code/submit/src/main/java/submit/assignment/service/dto/SubmissionDetailDTO.java
/home/marwa/Documents/code/submit/src/main/java/submit/assignment/domain/Course.java
/home/marwa/Documents/code/submit/src/main/java/submit/assignment/service/exceptions/EmailDoesNotExistException.java
/home/marwa/Documents/code/submit/src/main/java/submit/assignment/service/dto/FileUploadDTO.java
/home/marwa/Documents/code/submit/src/main/java/submit/assignment/repository/UserRepo.java
/home/marwa/Documents/code/submit/src/main/java/submit/assignment/service/UserService.java
/home/marwa/Documents/code/submit/src/main/java/submit/assignment/service/exceptions/InvalidResetKeyException.java
/home/marwa/Documents/code/submit/src/main/java/submit/assignment/service/mapper/CourseMapper.java
/home/marwa/Documents/code/submit/src/main/java/submit/assignment/web/rest/AssignmentResource.java
/home/marwa/Documents/code/submit/src/main/java/submit/assignment/service/dto/RequestPasswordReset.java
/home/marwa/Documents/code/submit/src/main/java/submit/assignment/configurations/DatabaseConfiguration.java
/home/marwa/Documents/code/submit/src/main/java/submit/assignment/service/util/TemplateUtil.java
/home/marwa/Documents/code/submit/src/main/java/submit/assignment/service/vm/CourseVM.java
/home/marwa/Documents/code/submit/src/main/java/submit/assignment/service/exceptions/AssignmentExceptions.java
/home/marwa/Documents/code/submit/src/main/java/submit/assignment/web/rest/UserResource.java
/home/marwa/Documents/code/submit/src/main/java/submit/assignment/AssignmentApplication.java
/home/marwa/Documents/code/submit/src/main/java/submit/assignment/service/util/RandomUtil.java
/home/marwa/Documents/code/submit/src/main/java/submit/assignment/web/rest/AccountResource.java
